{
  "count": 50,
  "page": 1,
  "last_page": 39,
  "total": 1918,
  "results": [
    {
      "data_id": 40615,
      "name": "((Berserkers Rawhide Shoulders))",
      "rarity": 4,
      "restriction_level": 70,
      "img": "https://render.guildwars2.com/file/93C75F701A63BC202A612F18F8045D423710FB37/61352.png",
      "type_id": 0,
      "sub_type_id": 6,
      "price_last_changed": "2021-05-24 05:33:49 UTC",
      "max_offer_unit_price": 0,
      "min_sale_unit_price": 0,
      "offer_availability": 0,
      "sale_availability": 0,
      "sale_price_change_last_hour": 0,
      "offer_price_change_last_hour": 0
    },
    {
      "data_id": 21105,
      "name": "Berserker's Amulet",
      "rarity": 5,
      "restriction_level": 80,
      "img": "https://render.guildwars2.com/file/5044509F3DB0F391576CCAD891BC654DC5FE79B3/63600.png",
      "type_id": 15,
      "sub_type_id": 1,
      "price_last_changed": "2021-05-24 05:33:49 UTC",
      "max_offer_unit_price": 0,
      "min_sale_unit_price": 0,
      "offer_availability": 0,
      "sale_availability": 0,
      "sale_price_change_last_hour": 0,
      "offer_price_change_last_hour": 0
    },
    {
      "data_id": 23144,
      "name": "Berserker's Amulet",
      "rarity": 3,
      "restriction_level": 80,
      "img": "https://render.guildwars2.com/file/4D9C6F58C20F052359BA5D1D10B9E4B97ED5F012/66791.png",
      "type_id": 15,
      "sub_type_id": 1,
      "price_last_changed": "2021-05-19 15:18:01 UTC",
      "max_offer_unit_price": 300,
      "min_sale_unit_price": 311,
      "offer_availability": 0,
      "sale_availability": 71067,
      "sale_price_change_last_hour": 0,
      "offer_price_change_last_hour": 0
    },
    {
      "data_id": 23146,
      "name": "Berserker's Amulet",
      "rarity": 3,
      "restriction_level": 68,
      "img": "https://render.guildwars2.com/file/4D9C6F58C20F052359BA5D1D10B9E4B97ED5F012/66791.png",
      "type_id": 15,
      "sub_type_id": 1,
      "price_last_changed": "2021-05-24 04:35:08 UTC",
      "max_offer_unit_price": 1466,
      "min_sale_unit_price": 2862,
      "offer_availability": 78,
      "sale_availability": 501,
      "sale_price_change_last_hour": 0,
      "offer_price_change_last_hour": 0
    },
    {
      "data_id": 23148,
      "name": "Berserker's Amulet",
      "rarity": 3,
      "restriction_level": 62,
      "img": "https://render.guildwars2.com/file/4D9C6F58C20F052359BA5D1D10B9E4B97ED5F012/66791.png",
      "type_id": 15,
      "sub_type_id": 1,
      "price_last_changed": "2021-05-24 04:35:08 UTC",
      "max_offer_unit_price": 1018,
      "min_sale_unit_price": 5965,
      "offer_availability": 292,
      "sale_availability": 429,
      "sale_price_change_last_hour": 0,
      "offer_price_change_last_hour": 0
    },
    {
      "data_id": 23149,
      "name": "Berserker's Amulet",
      "rarity": 3,
      "restriction_level": 74,
      "img": "https://render.guildwars2.com/file/4D9C6F58C20F052359BA5D1D10B9E4B97ED5F012/66791.png",
      "type_id": 15,
      "sub_type_id": 1,
      "price_last_changed": "2021-05-23 08:12:10 UTC",
      "max_offer_unit_price": 1185,
      "min_sale_unit_price": 1188,
      "offer_availability": 0,
      "sale_availability": 385,
      "sale_price_change_last_hour": 0,
      "offer_price_change_last_hour": 0
    },
    {
      "data_id": 23166,
      "name": "Berserker's Amulet",
      "rarity": 4,
      "restriction_level": 67,
      "img": "https://render.guildwars2.com/file/4D9C6F58C20F052359BA5D1D10B9E4B97ED5F012/66791.png",
      "type_id": 15,
      "sub_type_id": 1,
      "price_last_changed": "2021-05-23 23:34:35 UTC",
      "max_offer_unit_price": 8230,
      "min_sale_unit_price": 13997,
      "offer_availability": 240,
      "sale_availability": 198,
      "sale_price_change_last_hour": 0,
      "offer_price_change_last_hour": 0
    },
    {
      "data_id": 23170,
      "name": "Berserker's Amulet",
      "rarity": 4,
      "restriction_level": 74,
      "img": "https://render.guildwars2.com/file/4D9C6F58C20F052359BA5D1D10B9E4B97ED5F012/66791.png",
      "type_id": 15,
      "sub_type_id": 1,
      "price_last_changed": "2021-05-22 22:04:56 UTC",
      "max_offer_unit_price": 2758,
      "min_sale_unit_price": 5999,
      "offer_availability": 154,
      "sale_availability": 112,
      "sale_price_change_last_hour": 0,
      "offer_price_change_last_hour": 0
    },
    {
      "data_id": 23174,
      "name": "Berserker's Amulet",
      "rarity": 4,
      "restriction_level": 80,
      "img": "https://render.guildwars2.com/file/4D9C6F58C20F052359BA5D1D10B9E4B97ED5F012/66791.png",
      "type_id": 15,
      "sub_type_id": 1,
      "price_last_changed": "2021-05-24 02:46:08 UTC",
      "max_offer_unit_price": 1682,
      "min_sale_unit_price": 1808,
      "offer_availability": 851,
      "sale_availability": 2049,
      "sale_price_change_last_hour": 0,
      "offer_price_change_last_hour": 0
    },
    {
      "data_id": 23180,
      "name": "Berserker's Amulet",
      "rarity": 5,
      "restriction_level": 62,
      "img": "https://render.guildwars2.com/file/4D9C6F58C20F052359BA5D1D10B9E4B97ED5F012/66791.png",
      "type_id": 15,
      "sub_type_id": 1,
      "price_last_changed": "2021-05-24 01:05:17 UTC",
      "max_offer_unit_price": 49202,
      "min_sale_unit_price": 129861,
      "offer_availability": 93,
      "sale_availability": 79,
      "sale_price_change_last_hour": 0,
      "offer_price_change_last_hour": 0
    },
    {
      "data_id": 23182,
      "name": "Berserker's Amulet",
      "rarity": 5,
      "restriction_level": 78,
      "img": "https://render.guildwars2.com/file/4D9C6F58C20F052359BA5D1D10B9E4B97ED5F012/66791.png",
      "type_id": 15,
      "sub_type_id": 1,
      "price_last_changed": "2021-05-24 04:35:13 UTC",
      "max_offer_unit_price": 1952,
      "min_sale_unit_price": 3145,
      "offer_availability": 1285,
      "sale_availability": 1119,
      "sale_price_change_last_hour": 0,
      "offer_price_change_last_hour": 0
    },
    {
      "data_id": 23183,
      "name": "Berserker's Amulet",
      "rarity": 5,
      "restriction_level": 80,
      "img": "https://render.guildwars2.com/file/4D9C6F58C20F052359BA5D1D10B9E4B97ED5F012/66791.png",
      "type_id": 15,
      "sub_type_id": 1,
      "price_last_changed": "2021-05-24 04:35:13 UTC",
      "max_offer_unit_price": 18397,
      "min_sale_unit_price": 25296,
      "offer_availability": 500,
      "sale_availability": 545,
      "sale_price_change_last_hour": 0,
      "offer_price_change_last_hour": 0
    },
    {
      "data_id": 23184,
      "name": "Berserker's Amulet",
      "rarity": 5,
      "restriction_level": 70,
      "img": "https://render.guildwars2.com/file/4D9C6F58C20F052359BA5D1D10B9E4B97ED5F012/66791.png",
      "type_id": 15,
      "sub_type_id": 1,
      "price_last_changed": "2021-05-24 04:35:13 UTC",
      "max_offer_unit_price": 11709,
      "min_sale_unit_price": 25704,
      "offer_availability": 101,
      "sale_availability": 187,
      "sale_price_change_last_hour": 0,
      "offer_price_change_last_hour": 0
    },
    {
      "data_id": 2992,
      "name": "Berserker's Apprentice Band",
      "rarity": 1,
      "restriction_level": 64,
      "img": "https://render.guildwars2.com/file/B8A925C49471F215F4AF6057D0B3B0F3BAA7CF19/61351.png",
      "type_id": 0,
      "sub_type_id": 3,
      "price_last_changed": "2021-05-15 19:00:56 UTC",
      "max_offer_unit_price": 40,
      "min_sale_unit_price": 103,
      "offer_availability": 0,
      "sale_availability": 230,
      "sale_price_change_last_hour": 0,
      "offer_price_change_last_hour": 0
    },
    {
      "data_id": 3122,
      "name": "Berserker's Apprentice Band",
      "rarity": 1,
      "restriction_level": 72,
      "img": "https://render.guildwars2.com/file/B8A925C49471F215F4AF6057D0B3B0F3BAA7CF19/61351.png",
      "type_id": 0,
      "sub_type_id": 3,
      "price_last_changed": "2021-05-23 20:20:48 UTC",
      "max_offer_unit_price": 55,
      "min_sale_unit_price": 108,
      "offer_availability": 627,
      "sale_availability": 111,
      "sale_price_change_last_hour": 0,
      "offer_price_change_last_hour": 0
    },
    {
      "data_id": 3140,
      "name": "Berserker's Apprentice Band",
      "rarity": 1,
      "restriction_level": 76,
      "img": "https://render.guildwars2.com/file/B8A925C49471F215F4AF6057D0B3B0F3BAA7CF19/61351.png",
      "type_id": 0,
      "sub_type_id": 3,
      "price_last_changed": "2021-05-23 20:20:48 UTC",
      "max_offer_unit_price": 75,
      "min_sale_unit_price": 81,
      "offer_availability": 0,
      "sale_availability": 863,
      "sale_price_change_last_hour": 0,
      "offer_price_change_last_hour": 0
    },
    {
      "data_id": 3158,
      "name": "Berserker's Apprentice Band",
      "rarity": 1,
      "restriction_level": 68,
      "img": "https://render.guildwars2.com/file/B8A925C49471F215F4AF6057D0B3B0F3BAA7CF19/61351.png",
      "type_id": 0,
      "sub_type_id": 3,
      "price_last_changed": "2021-04-28 14:52:13 UTC",
      "max_offer_unit_price": 43,
      "min_sale_unit_price": 129,
      "offer_availability": 0,
      "sale_availability": 203,
      "sale_price_change_last_hour": 0,
      "offer_price_change_last_hour": 0
    },
    {
      "data_id": 3176,
      "name": "Berserker's Apprentice Band",
      "rarity": 1,
      "restriction_level": 80,
      "img": "https://render.guildwars2.com/file/B8A925C49471F215F4AF6057D0B3B0F3BAA7CF19/61351.png",
      "type_id": 0,
      "sub_type_id": 3,
      "price_last_changed": "2021-05-23 20:20:53 UTC",
      "max_offer_unit_price": 53,
      "min_sale_unit_price": 89,
      "offer_availability": 0,
      "sale_availability": 1172,
      "sale_price_change_last_hour": 0,
      "offer_price_change_last_hour": 0
    },
    {
      "data_id": 3372,
      "name": "Berserker's Apprentice Band",
      "rarity": 1,
      "restriction_level": 62,
      "img": "https://render.guildwars2.com/file/B8A925C49471F215F4AF6057D0B3B0F3BAA7CF19/61351.png",
      "type_id": 0,
      "sub_type_id": 3,
      "price_last_changed": "2021-05-23 20:23:07 UTC",
      "max_offer_unit_price": 62,
      "min_sale_unit_price": 596,
      "offer_availability": 347,
      "sale_availability": 69,
      "sale_price_change_last_hour": 0,
      "offer_price_change_last_hour": 0
    },
    {
      "data_id": 3373,
      "name": "Berserker's Apprentice Band",
      "rarity": 1,
      "restriction_level": 66,
      "img": "https://render.guildwars2.com/file/B8A925C49471F215F4AF6057D0B3B0F3BAA7CF19/61351.png",
      "type_id": 0,
      "sub_type_id": 3,
      "price_last_changed": "2021-05-22 02:06:58 UTC",
      "max_offer_unit_price": 42,
      "min_sale_unit_price": 115,
      "offer_availability": 277,
      "sale_availability": 63,
      "sale_price_change_last_hour": 0,
      "offer_price_change_last_hour": 0
    },
    {
      "data_id": 3374,
      "name": "Berserker's Apprentice Band",
      "rarity": 1,
      "restriction_level": 70,
      "img": "https://render.guildwars2.com/file/B8A925C49471F215F4AF6057D0B3B0F3BAA7CF19/61351.png",
      "type_id": 0,
      "sub_type_id": 3,
      "price_last_changed": "2021-05-23 20:23:07 UTC",
      "max_offer_unit_price": 44,
      "min_sale_unit_price": 108,
      "offer_availability": 251,
      "sale_availability": 91,
      "sale_price_change_last_hour": 0,
      "offer_price_change_last_hour": 0
    },
    {
      "data_id": 3375,
      "name": "Berserker's Apprentice Band",
      "rarity": 1,
      "restriction_level": 74,
      "img": "https://render.guildwars2.com/file/B8A925C49471F215F4AF6057D0B3B0F3BAA7CF19/61351.png",
      "type_id": 0,
      "sub_type_id": 3,
      "price_last_changed": "2021-05-09 22:25:56 UTC",
      "max_offer_unit_price": 59,
      "min_sale_unit_price": 105,
      "offer_availability": 0,
      "sale_availability": 511,
      "sale_price_change_last_hour": 0,
      "offer_price_change_last_hour": 0
    },
    {
      "data_id": 3376,
      "name": "Berserker's Apprentice Band",
      "rarity": 1,
      "restriction_level": 78,
      "img": "https://render.guildwars2.com/file/B8A925C49471F215F4AF6057D0B3B0F3BAA7CF19/61351.png",
      "type_id": 0,
      "sub_type_id": 3,
      "price_last_changed": "2021-05-23 20:23:07 UTC",
      "max_offer_unit_price": 48,
      "min_sale_unit_price": 67,
      "offer_availability": 133,
      "sale_availability": 1502,
      "sale_price_change_last_hour": 0,
      "offer_price_change_last_hour": 0
    },
    {
      "data_id": 5233,
      "name": "Berserker's Apprentice Band",
      "rarity": 1,
      "restriction_level": 65,
      "img": "https://render.guildwars2.com/file/B8A925C49471F215F4AF6057D0B3B0F3BAA7CF19/61351.png",
      "type_id": 0,
      "sub_type_id": 3,
      "price_last_changed": "2021-05-03 09:15:28 UTC",
      "max_offer_unit_price": 43,
      "min_sale_unit_price": 544,
      "offer_availability": 0,
      "sale_availability": 91,
      "sale_price_change_last_hour": 0,
      "offer_price_change_last_hour": 0
    },
    {
      "data_id": 5251,
      "name": "Berserker's Apprentice Band",
      "rarity": 1,
      "restriction_level": 70,
      "img": "https://render.guildwars2.com/file/B8A925C49471F215F4AF6057D0B3B0F3BAA7CF19/61351.png",
      "type_id": 0,
      "sub_type_id": 3,
      "price_last_changed": "2021-04-26 00:14:34 UTC",
      "max_offer_unit_price": 50,
      "min_sale_unit_price": 699,
      "offer_availability": 111,
      "sale_availability": 121,
      "sale_price_change_last_hour": 0,
      "offer_price_change_last_hour": 0
    },
    {
      "data_id": 5269,
      "name": "Berserker's Apprentice Band",
      "rarity": 1,
      "restriction_level": 75,
      "img": "https://render.guildwars2.com/file/B8A925C49471F215F4AF6057D0B3B0F3BAA7CF19/61351.png",
      "type_id": 0,
      "sub_type_id": 3,
      "price_last_changed": "2021-04-26 00:14:34 UTC",
      "max_offer_unit_price": 40,
      "min_sale_unit_price": 450,
      "offer_availability": 53,
      "sale_availability": 77,
      "sale_price_change_last_hour": 0,
      "offer_price_change_last_hour": 0
    },
    {
      "data_id": 5287,
      "name": "Berserker's Apprentice Band",
      "rarity": 1,
      "restriction_level": 80,
      "img": "https://render.guildwars2.com/file/B8A925C49471F215F4AF6057D0B3B0F3BAA7CF19/61351.png",
      "type_id": 0,
      "sub_type_id": 3,
      "price_last_changed": "2021-05-18 23:17:31 UTC",
      "max_offer_unit_price": 49,
      "min_sale_unit_price": 149,
      "offer_availability": 884,
      "sale_availability": 449,
      "sale_price_change_last_hour": 0,
      "offer_price_change_last_hour": 0
    },
    {
      "data_id": 2962,
      "name": "Berserker's Apprentice Coat",
      "rarity": 1,
      "restriction_level": 64,
      "img": "https://render.guildwars2.com/file/DB0264EE5C0079BB3996EC7B0297CEE1BD48EF07/61403.png",
      "type_id": 0,
      "sub_type_id": 0,
      "price_last_changed": "2021-05-24 04:42:24 UTC",
      "max_offer_unit_price": 42,
      "min_sale_unit_price": 52,
      "offer_availability": 1,
      "sale_availability": 112,
      "sale_price_change_last_hour": 0,
      "offer_price_change_last_hour": 0
    },
    {
      "data_id": 3120,
      "name": "Berserker's Apprentice Coat",
      "rarity": 1,
      "restriction_level": 72,
      "img": "https://render.guildwars2.com/file/DB0264EE5C0079BB3996EC7B0297CEE1BD48EF07/61403.png",
      "type_id": 0,
      "sub_type_id": 0,
      "price_last_changed": "2021-05-22 18:50:05 UTC",
      "max_offer_unit_price": 46,
      "min_sale_unit_price": 139,
      "offer_availability": 187,
      "sale_availability": 84,
      "sale_price_change_last_hour": 0,
      "offer_price_change_last_hour": 0
    },
    {
      "data_id": 3138,
      "name": "Berserker's Apprentice Coat",
      "rarity": 1,
      "restriction_level": 76,
      "img": "https://render.guildwars2.com/file/DB0264EE5C0079BB3996EC7B0297CEE1BD48EF07/61403.png",
      "type_id": 0,
      "sub_type_id": 0,
      "price_last_changed": "2021-05-23 20:20:48 UTC",
      "max_offer_unit_price": 77,
      "min_sale_unit_price": 99,
      "offer_availability": 350,
      "sale_availability": 1069,
      "sale_price_change_last_hour": 0,
      "offer_price_change_last_hour": 0
    },
    {
      "data_id": 3156,
      "name": "Berserker's Apprentice Coat",
      "rarity": 1,
      "restriction_level": 68,
      "img": "https://render.guildwars2.com/file/DB0264EE5C0079BB3996EC7B0297CEE1BD48EF07/61403.png",
      "type_id": 0,
      "sub_type_id": 0,
      "price_last_changed": "2021-05-08 02:47:51 UTC",
      "max_offer_unit_price": 52,
      "min_sale_unit_price": 138,
      "offer_availability": 227,
      "sale_availability": 86,
      "sale_price_change_last_hour": 0,
      "offer_price_change_last_hour": 0
    },
    {
      "data_id": 3174,
      "name": "Berserker's Apprentice Coat",
      "rarity": 1,
      "restriction_level": 80,
      "img": "https://render.guildwars2.com/file/DB0264EE5C0079BB3996EC7B0297CEE1BD48EF07/61403.png",
      "type_id": 0,
      "sub_type_id": 0,
      "price_last_changed": "2021-05-24 04:44:07 UTC",
      "max_offer_unit_price": 80,
      "min_sale_unit_price": 137,
      "offer_availability": 337,
      "sale_availability": 1186,
      "sale_price_change_last_hour": 0,
      "offer_price_change_last_hour": 0
    },
    {
      "data_id": 3334,
      "name": "Berserker's Apprentice Coat",
      "rarity": 1,
      "restriction_level": 62,
      "img": "https://render.guildwars2.com/file/DB0264EE5C0079BB3996EC7B0297CEE1BD48EF07/61403.png",
      "type_id": 0,
      "sub_type_id": 0,
      "price_last_changed": "2021-05-24 04:45:06 UTC",
      "max_offer_unit_price": 66,
      "min_sale_unit_price": 159,
      "offer_availability": 668,
      "sale_availability": 284,
      "sale_price_change_last_hour": 0,
      "offer_price_change_last_hour": 0
    },
    {
      "data_id": 3335,
      "name": "Berserker's Apprentice Coat",
      "rarity": 1,
      "restriction_level": 66,
      "img": "https://render.guildwars2.com/file/DB0264EE5C0079BB3996EC7B0297CEE1BD48EF07/61403.png",
      "type_id": 0,
      "sub_type_id": 0,
      "price_last_changed": "2021-05-23 20:22:35 UTC",
      "max_offer_unit_price": 50,
      "min_sale_unit_price": 101,
      "offer_availability": 0,
      "sale_availability": 232,
      "sale_price_change_last_hour": 0,
      "offer_price_change_last_hour": 0
    },
    {
      "data_id": 3336,
      "name": "Berserker's Apprentice Coat",
      "rarity": 1,
      "restriction_level": 70,
      "img": "https://render.guildwars2.com/file/DB0264EE5C0079BB3996EC7B0297CEE1BD48EF07/61403.png",
      "type_id": 0,
      "sub_type_id": 0,
      "price_last_changed": "2021-05-20 08:19:12 UTC",
      "max_offer_unit_price": 57,
      "min_sale_unit_price": 194,
      "offer_availability": 538,
      "sale_availability": 148,
      "sale_price_change_last_hour": 0,
      "offer_price_change_last_hour": 0
    },
    {
      "data_id": 3337,
      "name": "Berserker's Apprentice Coat",
      "rarity": 1,
      "restriction_level": 74,
      "img": "https://render.guildwars2.com/file/DB0264EE5C0079BB3996EC7B0297CEE1BD48EF07/61403.png",
      "type_id": 0,
      "sub_type_id": 0,
      "price_last_changed": "2021-05-23 20:22:35 UTC",
      "max_offer_unit_price": 47,
      "min_sale_unit_price": 200,
      "offer_availability": 249,
      "sale_availability": 159,
      "sale_price_change_last_hour": 0,
      "offer_price_change_last_hour": 0
    },
    {
      "data_id": 3338,
      "name": "Berserker's Apprentice Coat",
      "rarity": 1,
      "restriction_level": 78,
      "img": "https://render.guildwars2.com/file/DB0264EE5C0079BB3996EC7B0297CEE1BD48EF07/61403.png",
      "type_id": 0,
      "sub_type_id": 0,
      "price_last_changed": "2021-05-24 04:45:06 UTC",
      "max_offer_unit_price": 64,
      "min_sale_unit_price": 106,
      "offer_availability": 657,
      "sale_availability": 1079,
      "sale_price_change_last_hour": 0,
      "offer_price_change_last_hour": 0
    },
    {
      "data_id": 5231,
      "name": "Berserker's Apprentice Coat",
      "rarity": 1,
      "restriction_level": 65,
      "img": "https://render.guildwars2.com/file/DB0264EE5C0079BB3996EC7B0297CEE1BD48EF07/61403.png",
      "type_id": 0,
      "sub_type_id": 0,
      "price_last_changed": "2021-04-27 21:53:31 UTC",
      "max_offer_unit_price": 86,
      "min_sale_unit_price": 2674,
      "offer_availability": 606,
      "sale_availability": 127,
      "sale_price_change_last_hour": 0,
      "offer_price_change_last_hour": 0
    },
    {
      "data_id": 5249,
      "name": "Berserker's Apprentice Coat",
      "rarity": 1,
      "restriction_level": 70,
      "img": "https://render.guildwars2.com/file/DB0264EE5C0079BB3996EC7B0297CEE1BD48EF07/61403.png",
      "type_id": 0,
      "sub_type_id": 0,
      "price_last_changed": "2021-05-13 14:45:13 UTC",
      "max_offer_unit_price": 200,
      "min_sale_unit_price": 899,
      "offer_availability": 436,
      "sale_availability": 72,
      "sale_price_change_last_hour": 0,
      "offer_price_change_last_hour": 0
    },
    {
      "data_id": 5267,
      "name": "Berserker's Apprentice Coat",
      "rarity": 1,
      "restriction_level": 75,
      "img": "https://render.guildwars2.com/file/DB0264EE5C0079BB3996EC7B0297CEE1BD48EF07/61403.png",
      "type_id": 0,
      "sub_type_id": 0,
      "price_last_changed": "2021-04-26 00:14:34 UTC",
      "max_offer_unit_price": 70,
      "min_sale_unit_price": 1500,
      "offer_availability": 192,
      "sale_availability": 137,
      "sale_price_change_last_hour": 0,
      "offer_price_change_last_hour": 0
    },
    {
      "data_id": 5285,
      "name": "Berserker's Apprentice Coat",
      "rarity": 1,
      "restriction_level": 80,
      "img": "https://render.guildwars2.com/file/DB0264EE5C0079BB3996EC7B0297CEE1BD48EF07/61403.png",
      "type_id": 0,
      "sub_type_id": 0,
      "price_last_changed": "2021-05-17 13:17:12 UTC",
      "max_offer_unit_price": 58,
      "min_sale_unit_price": 398,
      "offer_availability": 51,
      "sale_availability": 1000,
      "sale_price_change_last_hour": 0,
      "offer_price_change_last_hour": 0
    },
    {
      "data_id": 40556,
      "name": "Berserker's Apprentice Coat",
      "rarity": 4,
      "restriction_level": 80,
      "img": "https://render.guildwars2.com/file/DB0264EE5C0079BB3996EC7B0297CEE1BD48EF07/61403.png",
      "type_id": 0,
      "sub_type_id": 0,
      "price_last_changed": "2021-05-24 05:33:49 UTC",
      "max_offer_unit_price": 0,
      "min_sale_unit_price": 0,
      "offer_availability": 0,
      "sale_availability": 0,
      "sale_price_change_last_hour": 0,
      "offer_price_change_last_hour": 0
    },
    {
      "data_id": 2978,
      "name": "Berserker's Apprentice Gloves",
      "rarity": 1,
      "restriction_level": 64,
      "img": "https://render.guildwars2.com/file/09805A08A8D6325CC60AF26F4C3A903534C1B0E5/61349.png",
      "type_id": 0,
      "sub_type_id": 2,
      "price_last_changed": "2021-04-25 14:57:25 UTC",
      "max_offer_unit_price": 30,
      "min_sale_unit_price": 139,
      "offer_availability": 0,
      "sale_availability": 270,
      "sale_price_change_last_hour": 0,
      "offer_price_change_last_hour": 0
    },
    {
      "data_id": 3121,
      "name": "Berserker's Apprentice Gloves",
      "rarity": 1,
      "restriction_level": 72,
      "img": "https://render.guildwars2.com/file/09805A08A8D6325CC60AF26F4C3A903534C1B0E5/61349.png",
      "type_id": 0,
      "sub_type_id": 2,
      "price_last_changed": "2021-05-24 04:44:02 UTC",
      "max_offer_unit_price": 35,
      "min_sale_unit_price": 100,
      "offer_availability": 378,
      "sale_availability": 173,
      "sale_price_change_last_hour": 0,
      "offer_price_change_last_hour": 0
    },
    {
      "data_id": 3139,
      "name": "Berserker's Apprentice Gloves",
      "rarity": 1,
      "restriction_level": 76,
      "img": "https://render.guildwars2.com/file/09805A08A8D6325CC60AF26F4C3A903534C1B0E5/61349.png",
      "type_id": 0,
      "sub_type_id": 2,
      "price_last_changed": "2021-05-24 04:44:02 UTC",
      "max_offer_unit_price": 38,
      "min_sale_unit_price": 64,
      "offer_availability": 940,
      "sale_availability": 4015,
      "sale_price_change_last_hour": 0,
      "offer_price_change_last_hour": 0
    },
    {
      "data_id": 3157,
      "name": "Berserker's Apprentice Gloves",
      "rarity": 1,
      "restriction_level": 68,
      "img": "https://render.guildwars2.com/file/09805A08A8D6325CC60AF26F4C3A903534C1B0E5/61349.png",
      "type_id": 0,
      "sub_type_id": 2,
      "price_last_changed": "2021-05-17 12:52:54 UTC",
      "max_offer_unit_price": 34,
      "min_sale_unit_price": 100,
      "offer_availability": 83,
      "sale_availability": 177,
      "sale_price_change_last_hour": 0,
      "offer_price_change_last_hour": 0
    },
    {
      "data_id": 3175,
      "name": "Berserker's Apprentice Gloves",
      "rarity": 1,
      "restriction_level": 80,
      "img": "https://render.guildwars2.com/file/09805A08A8D6325CC60AF26F4C3A903534C1B0E5/61349.png",
      "type_id": 0,
      "sub_type_id": 2,
      "price_last_changed": "2021-05-24 04:44:07 UTC",
      "max_offer_unit_price": 57,
      "min_sale_unit_price": 90,
      "offer_availability": 5357,
      "sale_availability": 790,
      "sale_price_change_last_hour": 0,
      "offer_price_change_last_hour": 0
    },
    {
      "data_id": 3354,
      "name": "Berserker's Apprentice Gloves",
      "rarity": 1,
      "restriction_level": 62,
      "img": "https://render.guildwars2.com/file/09805A08A8D6325CC60AF26F4C3A903534C1B0E5/61349.png",
      "type_id": 0,
      "sub_type_id": 2,
      "price_last_changed": "2021-05-22 10:26:01 UTC",
      "max_offer_unit_price": 40,
      "min_sale_unit_price": 110,
      "offer_availability": 2234,
      "sale_availability": 149,
      "sale_price_change_last_hour": 0,
      "offer_price_change_last_hour": 0
    },
    {
      "data_id": 3355,
      "name": "Berserker's Apprentice Gloves",
      "rarity": 1,
      "restriction_level": 66,
      "img": "https://render.guildwars2.com/file/09805A08A8D6325CC60AF26F4C3A903534C1B0E5/61349.png",
      "type_id": 0,
      "sub_type_id": 2,
      "price_last_changed": "2021-05-23 03:21:52 UTC",
      "max_offer_unit_price": 47,
      "min_sale_unit_price": 103,
      "offer_availability": 204,
      "sale_availability": 112,
      "sale_price_change_last_hour": 0,
      "offer_price_change_last_hour": 0
    },
    {
      "data_id": 3356,
      "name": "Berserker's Apprentice Gloves",
      "rarity": 1,
      "restriction_level": 70,
      "img": "https://render.guildwars2.com/file/09805A08A8D6325CC60AF26F4C3A903534C1B0E5/61349.png",
      "type_id": 0,
      "sub_type_id": 2,
      "price_last_changed": "2021-05-17 04:32:32 UTC",
      "max_offer_unit_price": 32,
      "min_sale_unit_price": 109,
      "offer_availability": 2321,
      "sale_availability": 85,
      "sale_price_change_last_hour": 0,
      "offer_price_change_last_hour": 0
    }
  ]
}